Computational Movement Analysis: Patterns and Trends in Environmental Data – Tasks and Inputs
…
sabi <- sabi |>
    rowwise() |>
    mutate(
        stepMean = mean(c(nMinus2, nMinus1, nPlus1, nPlus2))
    ) |>
    ungroup()

sabi

Simple feature collection with 192 features and 11 fields
Geometry type: POINT
Dimension:     XY
Bounding box:  xmin: 2569724 ymin: 1204916 xmax: 2570927 ymax: 1205957
Projected CRS: CH1903+ / LV95
# A tibble: 192 × 12
   TierID TierName CollarID DatetimeUTC                E        N
   <chr>  <chr>       <dbl> <dttm>                 <dbl>    <dbl>
 1 002A   Sabi        12275 2015-06-30 22:00:13 2569972. 1205366.
 2 002A   Sabi        12275 2015-06-30 22:16:06 2569975. 1205637.
 3 002A   Sabi        12275 2015-06-30 22:30:19 2570266. 1205857.
 4 002A   Sabi        12275 2015-06-30 22:45:13 2570208. 1205913.
 5 002A   Sabi        12275 2015-06-30 23:00:10 2570247. 1205731.
 6 002A   Sabi        12275 2015-06-30 23:15:17 2570512. 1205279.
 7 002A   Sabi        12275 2015-06-30 23:30:38 2570684. 1205103.
 8 002A   Sabi        12275 2015-06-30 23:45:16 2570526. 1205051.
 9 002A   Sabi        12275 2015-07-01 00:00:10 2570532. 1205044.
10 002A   Sabi        12275 2015-07-01 00:15:14 2570530. 1205059.
# ℹ 182 more rows
# ℹ 6 more variables: geometry <POINT [m]>, nMinus2 <dbl>, nMinus1 <dbl>,
#   nPlus1 <dbl>, nPlus2 <dbl>, stepMean <dbl>
…
